﻿#afm_flds.table_name,field_name,ml_heading,afm_type,allow_null,comments,data_type,decimals,dep_cols,dflt_val,edit_group,edit_mask,enum_list,is_atxt,max_val,min_val,afm_module,num_format,primary_key,ref_table,review_group,afm_size,sl_heading,string_format,is_tc_traceable,field_grouping,attributes,validate_data
#1 Record(s) Updated,,,,,,,,,,,,,,,,,,,,,,,,,,,
hwr_month,description,Work Description,"2,070",1,,12,0,,,,,,0,,,4,0,0,,,5000,,40,0,,,1
